<?xml version="1.0" encoding="UTF-8"?>
<svg width="81px" height="101px" viewBox="0 0 81 101" version="1.1" xmlns="http://www.w3.org/2000/svg" xmlns:xlink="http://www.w3.org/1999/xlink">
    <!-- Generator: Sketch 56.3 (81716) - https://sketch.com -->
    <title>noun_alien_1107157</title>
    <desc>Created with Sketch.</desc>
    <g id="Page-1" stroke="none" stroke-width="1" fill="none" fill-rule="evenodd">
        <g id="noun_alien_1107157" fill="#000000" fill-rule="nonzero">
            <path d="M40.5,0.5 C18.3,0.5 0.3,18.5 0.3,40.7 C0.3,62.9 26.7,100.5 40.5,100.5 C55.4,100.5 80.7,62.9 80.7,40.7 C80.7,18.5 62.7,0.5 40.5,0.5 Z M17,67 C9.2,60.2 9.2,48.5 9.2,48.5 C9.2,48.5 21.8,47.9 29.5,54.7 C37.3,61.5 37.3,73.2 37.3,73.2 C37.3,73.2 24.8,73.8 17,67 Z M64,67 C56.2,73.8 43.7,73.2 43.7,73.2 C43.7,73.2 43.7,61.5 51.5,54.7 C59.3,47.9 71.8,48.5 71.8,48.5 C71.8,48.5 71.8,60.2 64,67 Z" id="Shape"></path>
        </g>
    </g>
</svg>