<?xml version="1.0" encoding="UTF-8"?>
<svg width="74px" height="94px" viewBox="0 0 74 94" version="1.1" xmlns="http://www.w3.org/2000/svg" xmlns:xlink="http://www.w3.org/1999/xlink">
    <!-- Generator: Sketch 56.3 (81716) - https://sketch.com -->
    <title>bigfoot_icon</title>
    <desc>Created with Sketch.</desc>
    <g id="Page-1" stroke="none" stroke-width="1" fill="none" fill-rule="evenodd">
        <g id="bigfoot_icon" fill="#000000" fill-rule="nonzero">
            <path d="M18.335,30.381 C18.396,30.379 18.439,30.353 18.464,30.303 L18.483,30.226 C19.242,29.649 19.945,28.823 20.592,27.748 C20.849,27.321 21.364,26.33 22.136,24.771 C22.744,23.542 23.289,22.622 23.77,22.012 C24.461,21.136 25.256,20.534 26.154,20.207 C26.088,20.207 26.042,20.181 26.016,20.13 L25.996,20.05 L25.057,19.581 C25.578,19.331 26.135,18.928 26.724,18.371 C27.04,18.072 27.552,17.53 28.26,16.747 C28.908,16.027 29.421,15.501 29.795,15.171 C30.379,14.658 30.939,14.303 31.474,14.104 L30.38,14.104 C30.38,14.051 30.406,13.999 30.458,13.948 C30.511,13.894 30.538,13.842 30.538,13.791 C31.806,13.156 33.108,12.613 34.443,12.159 C35.528,11.788 36.571,11.502 37.572,11.302 C37.613,11.281 37.655,11.259 37.699,11.235 C38.191,11.154 38.845,10.765 39.659,10.066 C40.473,9.366 41.342,8.037 42.263,6.078 C43.185,4.119 44.179,2.77 45.243,2.031 C46.303,1.29 47.444,0.927 48.667,0.938712012 C49.887,0.951 50.935,1.098 51.809,1.38 C52.742,1.686 53.579,2.119 54.319,2.681 C56.09,4.024 56.975,5.796 56.975,7.997 C56.273,12.965 54.887,16.396 52.819,18.292 C52.931,18.46 53.04,18.639 53.147,18.83 C53.457,19.385 53.774,20.133 54.097,21.074 C54.282,21.608 54.555,22.431 54.919,23.541 C55.085,24.009 55.253,24.437 55.423,24.823 C55.6,25.227 55.779,25.587 55.96,25.902 L55.727,25.902 C55.669,25.902 55.542,25.799 55.347,25.594 C55.107,25.339 54.948,25.18 54.867,25.12 L54.71,25.12 C55.231,27.262 55.751,28.829 56.268,29.82 C57.01,31.248 58.055,32.29 59.405,32.948 L59.405,33.103 L57.684,33.103 C58.644,33.896 59.9,34.662 61.452,35.396 C62.865,36.066 64.325,36.616 65.834,37.047 C65.986,37.09 66.14,37.132 66.292,37.174 L66.313,37.252 C66.339,37.305 66.384,37.332 66.452,37.332 C66.367,37.416 66.255,37.488 66.117,37.547 C65.968,37.611 65.816,37.643 65.669,37.643 C66.109,37.939 66.743,38.288 67.57,38.689 C68.689,39.231 69.376,39.572 69.632,39.714 C71.199,40.561 72.301,41.54 72.938,42.649 C72.636,42.625 72.293,42.52 71.91,42.333 C71.494,42.129 71.24,42.027 71.146,42.027 L70.983,42.027 C71.047,42.1 71.113,42.175 71.179,42.25 C71.279,42.366 71.374,42.481 71.468,42.597 C71.48,42.612 71.491,42.628 71.504,42.643 C72.67,44.13 73.254,45.679 73.254,47.286 C73.254,47.94 73.076,48.577 72.72,49.199 C72.396,49.762 71.949,50.277 71.377,50.743 C70.842,51.174 70.258,51.515 69.624,51.767 C68.995,52.014 68.405,52.136 67.855,52.136 C67.448,52.136 67.178,52.108 67.048,52.05 C66.898,51.987 66.724,51.806 66.525,51.51 C66.639,51.399 66.821,51.295 67.071,51.202 C67.217,51.15 67.445,51.075 67.749,50.975 C68.289,50.77 68.56,50.453 68.56,50.025 C68.56,49.791 68.396,49.557 68.066,49.325 C67.782,49.119 67.33,48.883 66.708,48.616 C66.357,48.464 65.672,48.19 64.652,47.798 C63.589,47.386 62.729,47.041 62.071,46.762 C59.782,45.793 57.765,44.748 56.021,43.628 C53.664,42.107 51.634,40.352 49.933,38.363 L49.933,38.208 C49.923,38.254 49.912,38.301 49.9,38.349 L49.9,38.351 C49.746,38.912 49.476,39.534 49.092,40.215 C49.078,40.234 48.676,40.887 47.885,42.175 C47.39,42.972 47.031,43.662 46.804,44.245 C46.563,44.85 46.415,45.447 46.36,46.037 C46.342,46.217 46.333,46.399 46.333,46.583 C46.333,47.712 46.79,48.915 47.703,50.193 C47.99,50.596 48.459,51.187 49.108,51.968 C49.139,52.005 49.171,52.042 49.203,52.078 C49.403,52.232 49.651,52.419 49.947,52.638 C50.787,53.279 51.368,53.85 51.692,54.35 C51.666,54.35 51.639,54.342 51.611,54.328 C51.561,54.303 51.535,54.258 51.535,54.193 L51.066,54.193 C51.203,54.549 51.454,54.942 51.821,55.373 L52.885,56.515 C53.322,56.984 53.646,57.395 53.858,57.746 C54.129,58.189 54.289,58.634 54.34,59.081 C54.162,58.957 54.003,58.861 53.866,58.793 C53.679,58.713 53.528,58.641 53.411,58.576 L53.256,58.576 C53.432,58.93 53.724,59.599 54.128,60.583 C54.334,61.085 54.569,61.666 54.836,62.328 C55.491,63.956 56.113,65.263 56.699,66.244 C56.633,66.244 56.449,66.166 56.151,66.01 C55.895,65.878 55.726,65.802 55.643,65.783 C55.616,65.733 55.603,65.685 55.601,65.641 L55.601,65.776 C55.613,65.776 55.626,65.778 55.643,65.783 C55.669,65.843 55.707,65.909 55.758,65.982 C55.862,66.125 55.915,66.265 55.915,66.401 C55.915,66.868 55.76,67.571 55.446,68.51 C55.133,69.448 54.975,70.18 54.975,70.705 C54.975,71.245 55.181,71.99 55.595,72.945 C55.802,73.42 56.014,73.846 56.229,74.224 L55.915,74.224 C55.876,74.224 55.769,74.184 55.596,74.102 C55.392,74.006 55.193,73.895 54.996,73.77 C54.989,73.766 54.982,73.761 54.975,73.756 C55.027,73.86 55.067,74.019 55.092,74.23 C55.1,74.293 55.107,74.361 55.113,74.434 C55.126,74.61 55.238,75.185 55.45,76.165 C55.451,76.179 55.453,76.191 55.455,76.205 C55.576,77.045 55.718,77.694 55.88,78.153 C56.117,78.822 56.461,79.349 56.913,79.738 L56.252,79.738 C56.107,79.656 55.999,79.596 55.929,79.555 C55.806,79.486 55.73,79.435 55.7,79.408 L55.59,79.408 C56.086,80.812 56.582,81.934 57.075,82.773 C57.86,84.106 58.692,84.864 59.573,85.043 C59.521,85.193 59.246,85.256 58.746,85.233 C58.21,85.179 57.892,85.153 57.796,85.153 C57.812,85.205 57.827,85.254 57.843,85.3 C58.468,85.88 59.201,86.24 60.045,86.385 C61.353,86.755 62.378,87.073 63.121,87.336 C65.912,88.328 67.307,89.357 67.307,90.427 C67.307,91.369 66.524,91.971 64.954,92.231 C64.415,92.322 63.762,92.373 62.991,92.386 C62.178,92.381 61.635,92.38 61.359,92.38 C57.992,92.38 55.02,92.224 52.439,91.912 C50.46,91.671 48.917,91.352 47.809,90.96 C46.913,90.506 46.352,89.87 46.123,89.048 C46.026,88.705 45.988,88.328 46.012,87.92 L45.364,88.982 C44.868,86.822 44.788,84.626 45.124,82.395 C45.13,82.391 45.137,82.387 45.143,82.384 L45.143,82.272 C45.137,82.314 45.13,82.355 45.124,82.395 C44.937,82.521 44.74,82.669 44.531,82.837 C44.365,82.952 44.164,83.022 43.93,83.045 C43.983,82.827 44.034,82.559 44.081,82.238 C44.127,81.924 44.15,81.697 44.15,81.555 C44.15,81.019 44.093,80.512 43.979,80.036 C43.904,79.723 43.777,79.341 43.598,78.889 C43.404,78.394 43.278,78.041 43.221,77.834 C43.106,77.426 43.047,77.013 43.047,76.594 C43.047,76.4 43.051,76.256 43.061,76.161 C43.077,76.006 43.106,75.88 43.15,75.784 C43.048,75.991 42.917,76.276 42.753,76.637 C42.609,76.941 42.487,77.165 42.387,77.311 C42.209,76.815 42.109,76.468 42.08,76.266 C42.064,76.141 42.057,75.772 42.057,75.161 C42.057,75.069 42.092,74.637 42.165,73.865 C42.238,73.093 42.276,72.662 42.276,72.571 C42.276,72.235 42.247,71.947 42.19,71.705 C42.159,71.574 42.095,71.386 42,71.14 C41.828,70.695 41.735,70.178 41.726,69.59 L40.954,70.533 C41.101,69.085 40.619,67.72 39.507,66.434 C39.435,66.351 39.275,66.242 39.027,66.109 C39.226,66.835 39.265,67.922 39.149,69.373 L39.149,69.529 C39.079,69.529 39.002,69.497 38.916,69.429 C38.861,69.391 38.786,69.323 38.687,69.223 C38.686,69.168 38.683,69.113 38.681,69.058 L38.681,69.215 C38.683,69.218 38.686,69.222 38.687,69.223 C38.708,70.011 38.593,70.74 38.342,71.406 C38.129,71.97 37.792,72.542 37.333,73.12 C37.297,73.165 36.885,73.633 36.099,74.521 C35.622,75.061 35.284,75.537 35.081,75.947 L34.92,75.947 C34.983,75.637 35.062,75.345 35.154,75.07 C35.259,74.779 35.337,74.55 35.388,74.38 L35.388,74.223 C35.336,74.253 35.284,74.284 35.231,74.316 C34.264,74.866 33.468,75.562 32.841,76.407 C32.799,76.464 32.759,76.518 32.72,76.573 C31.945,77.681 31.53,78.932 31.474,80.331 C31.305,80.174 31.182,80.015 31.107,79.854 C31.002,79.628 30.968,79.371 31.005,79.078 C30.838,79.416 30.581,79.84 30.234,80.346 C30.037,80.629 29.731,81.07 29.316,81.663 C28.566,82.773 28.138,83.736 28.032,84.555 C27.845,84.288 27.68,84.01 27.539,83.724 C27.439,84.056 27.39,84.36 27.39,84.633 C27.39,84.81 27.423,84.99 27.489,85.174 L27.489,85.179 L27.481,85.181 C27.492,85.199 27.502,85.214 27.508,85.228 C28.174,86.323 29.283,87.245 30.836,87.999 C30.935,88.048 31.356,88.235 32.098,88.56 C32.619,88.784 33.025,88.988 33.316,89.174 C34.165,89.715 34.591,90.419 34.591,91.287 C34.591,92.035 34.123,92.608 33.191,93.006 C32.45,93.321 31.586,93.48 30.599,93.48 C29.135,93.48 27.567,93.25 25.897,92.792 C24.162,92.317 22.574,91.661 21.133,90.823 C19.56,89.909 18.331,88.875 17.445,87.719 C16.458,86.426 15.965,85.059 15.965,83.617 C15.965,83.495 15.99,83.298 16.042,83.023 C16.084,82.8 16.199,82.375 16.384,81.748 C16.374,81.75 16.363,81.752 16.354,81.757 C15.988,81.858 15.603,82.008 15.199,82.208 C15.418,80.905 15.769,79.814 16.255,78.934 C16.658,78.206 17.245,77.472 18.017,76.732 C17.912,76.732 17.782,76.757 17.625,76.81 C17.542,76.838 17.467,76.859 17.399,76.872 C17.631,76.402 18.087,75.862 18.766,75.249 C18.977,75.062 19.667,74.493 20.836,73.547 C21.729,72.822 22.405,72.209 22.864,71.71 C23.511,71.006 23.93,70.332 24.121,69.688 C23.781,69.688 23.527,69.682 23.358,69.668 C23.066,69.646 22.85,69.601 22.711,69.532 C23.019,69.421 23.303,69.257 23.563,69.041 C24.342,68.391 24.901,67.268 25.241,65.671 C25.387,64.983 25.512,64.098 25.616,63.02 C25.727,61.849 25.799,61.13 25.831,60.861 C25.894,60.824 25.95,60.794 25.998,60.767 L25.84,60.767 C25.838,60.788 25.835,60.819 25.829,60.861 C25.632,60.979 25.375,61.157 25.057,61.393 L25.057,61.236 C25.393,60.646 25.588,60.228 25.641,59.98 C25.669,59.852 25.682,59.463 25.682,58.811 C25.682,58.791 25.682,58.774 25.682,58.755 C25.467,58.156 25.205,57.531 24.897,56.881 C24.289,55.697 23.841,54.81 23.555,54.215 C23.05,53.177 22.678,52.235 22.441,51.388 C22.13,50.28 21.975,49.117 21.975,47.899 C21.975,46.375 22.429,44.657 23.337,42.744 C23.581,42.228 23.849,41.719 24.142,41.217 C23.771,41.651 23.401,42.057 23.03,42.436 C22.417,43.059 21.802,43.607 21.185,44.079 C20.557,44.955 19.981,45.708 19.459,46.336 C18.045,48.032 16.602,49.315 15.132,50.186 C13.289,51.279 11.271,51.826 9.076,51.826 C8.62,51.826 7.914,51.743 6.957,51.576 C5.897,51.393 4.885,51.164 3.916,50.887 C3.762,50.843 3.612,50.799 3.467,50.755 C1.156,50.05 0,49.311 0,48.538 C0,48.362 0.05,48.205 0.151,48.066 C0.3,47.858 0.536,47.753 0.859,47.753 C0.997,47.753 1.381,47.858 2.011,48.068 C2.641,48.276 3.118,48.381 3.442,48.381 C3.449,48.381 3.457,48.381 3.467,48.381 C3.923,48.378 4.374,48.314 4.821,48.192 C5.062,47.868 5.416,47.527 5.884,47.169 C6.231,46.898 6.599,46.655 6.987,46.439 C7.327,46.251 7.575,46.136 7.731,46.097 C7.523,46.097 7.237,46.046 6.872,45.941 C6.506,45.837 6.218,45.784 6.009,45.784 C6.801,45.664 7.541,45.165 8.228,44.284 C8.493,43.948 8.785,43.512 9.105,42.974 C9.476,42.334 9.757,41.853 9.949,41.53 C10.658,40.311 11.303,39.436 11.884,38.903 C12.266,38.556 12.674,38.291 13.105,38.11 C13.226,38.028 13.35,37.957 13.477,37.894 C13.301,37.807 13.111,37.734 12.909,37.679 C12.671,37.613 12.443,37.581 12.226,37.581 C12.226,37.529 12.252,37.477 12.303,37.426 C12.356,37.372 12.383,37.32 12.383,37.269 C13.056,36.988 13.705,36.549 14.331,35.954 C14.758,35.55 15.283,34.951 15.908,34.157 C16.663,33.195 17.174,32.566 17.441,32.272 C18.051,31.596 18.66,31.07 19.268,30.695 C19.06,30.591 18.904,30.519 18.799,30.48 C18.625,30.414 18.471,30.381 18.335,30.381 Z" id="Path"></path>
        </g>
    </g>
</svg>